{
    "terraform" : "/builds/myaws_profilecloud/salt/saltmaster/terraform",
    "aws_region": "us-east-1",
    "aws_profile": "myaws_profile",
    "aws_key_name": "acme-devops",
    "route53_tld" : "acme.io",
    "environment": {
        "name": "dev",
        "version": "GET_NEXT"
    },
    "project": "acme_fu",
    "staged_artifacts" : { },
    "tags" : {
	"owner": "devops",
	"email": "devops@acme.com",
	"group": "devops",
        "product": "saltmaster",
        "system_type" : "saltmaster",
        "Name" : "{{ config.tags['system_type'] }}-{{ config.environment['name']}}-{{ config.environment['version'] }}"
    },
    "ec2_map" : {
	"instance_type"    : "t2.medium",
	"root_volume_size" : 50,
	"root_volume_type" : "gp2"
    },
    "eip_allocation_id": "",
    "create_s3_buckets"    : 0,
    "asg_map"              : {
        "use_asg"                 : 0,
        "asg_capacity_timeout"    : "8m",
        "asg_desired_capacity"    : 1,
        "asg_max_size"            : 1,
        "asg_min_size"            : 1
    },
    "elb_map"              : {
        "use_elb"                 : 0,
        "elb_health-check"        : "HTTPS:4505/",
        "elb_healthy_threshold"   : 1,
        "elb_interval"            : 30,
        "elb_timeout"             : 3,
        "elb_unhealthy_threshold" : 0
    },
    "saltmaster_map" : {
        "version" : "2019.2.0+ds-1"
    }
}
